{
  "devToolsPort": 19002,
  "expoServerPort": 19000,
  "packagerPort": 19001,
  "packagerPid": 5399,
  "expoServerNgrokUrl": "https://ce-nqe.anonymous.web-contacts.exp.direct",
  "packagerNgrokUrl": "https://packager.ce-nqe.anonymous.web-contacts.exp.direct",
  "ngrokPid": 7388
}